<?xml version="1.0" encoding="UTF-8" standalone="no"?>
<!-- Created with Inkscape (http://www.inkscape.org/) -->

<svg
   xmlns:dc="http://purl.org/dc/elements/1.1/"
   xmlns:cc="http://creativecommons.org/ns#"
   xmlns:rdf="http://www.w3.org/1999/02/22-rdf-syntax-ns#"
   xmlns:svg="http://www.w3.org/2000/svg"
   xmlns="http://www.w3.org/2000/svg"
   xmlns:sodipodi="http://sodipodi.sourceforge.net/DTD/sodipodi-0.dtd"
   xmlns:inkscape="http://www.inkscape.org/namespaces/inkscape"
   width="128"
   height="128"
   viewBox="0 0 33.866666 33.866668"
   version="1.1"
   id="svg8"
   inkscape:version="0.92.4 5da689c313, 2019-01-14"
   sodipodi:docname="logo.svg"
   inkscape:export-filename="/mnt/media/Dev/videoskip/logo/19x19.png"
   inkscape:export-xdpi="14.25"
   inkscape:export-ydpi="14.25">
  <defs
     id="defs2" />
  <sodipodi:namedview
     id="base"
     pagecolor="#ffffff"
     bordercolor="#666666"
     borderopacity="1.0"
     inkscape:pageopacity="0.0"
     inkscape:pageshadow="2"
     inkscape:zoom="2.8"
     inkscape:cx="98.186743"
     inkscape:cy="83.576471"
     inkscape:document-units="mm"
     inkscape:current-layer="layer1"
     showgrid="false"
     units="px"
     inkscape:window-width="1295"
     inkscape:window-height="768"
     inkscape:window-x="332"
     inkscape:window-y="112"
     inkscape:window-maximized="0" />
  <metadata
     id="metadata5">
    <rdf:RDF>
      <cc:Work
         rdf:about="">
        <dc:format>image/svg+xml</dc:format>
        <dc:type
           rdf:resource="http://purl.org/dc/dcmitype/StillImage" />
        <dc:title />
      </cc:Work>
    </rdf:RDF>
  </metadata>
  <g
     inkscape:label="Layer 1"
     inkscape:groupmode="layer"
     id="layer1"
     transform="translate(0,-263.13332)">
    <path
       style="fill:#2a90fa;fill-opacity:1;stroke:#000000;stroke-width:1;stroke-opacity:1"
       d="m 3.7462004,268.26427 -0.080098,5.90145 5.9009317,5.90093 -5.9009317,5.90093 0.080098,5.90145 5.9009317,-5.90145 5.9014489,-5.90093 -5.9014489,-5.90093 z"
       id="rect5069"
       inkscape:connector-curvature="0"
       sodipodi:nodetypes="ccccccccc" />
    <path
       style="fill:#2a90fa;fill-opacity:1;stroke:#000000;stroke-width:1;stroke-opacity:1"
       d="m 18.194414,268.26427 -0.08061,5.90145 5.901448,5.90093 -5.901448,5.90093 0.08061,5.90145 5.900932,-5.90145 5.900931,-5.90093 -5.900931,-5.90093 z"
       id="rect5069-6"
       inkscape:connector-curvature="0"
       sodipodi:nodetypes="ccccccccc" />
  </g>
</svg>
